    public String[] order(String ...str){
      String temp;
      byte t=(byte)str.length;
      //change to if error for (int j = 0; j < str.length-1; j++)
      for (int j = 0; j < str.length-1; j++) 
         for (int i = j + 1; i < str.length; i++) 
            if (str[i].compareToIgnoreCase(str[j]) < 0){ 
               temp = str[j];
               str[j] = str[i];
               str[i] = temp;
            }
     return str;
    }
     
